<?xml version="1.0" encoding="UTF-8"?>
<svg width="174px" height="40px" viewBox="0 0 174 40" version="1.1" xmlns="http://www.w3.org/2000/svg" xmlns:xlink="http://www.w3.org/1999/xlink">
    <!-- Generator: Sketch 56.3 (81716) - https://sketch.com -->
    <title>logo1</title>
    <desc>Created with Sketch.</desc>
    <g id="Page-1" stroke="none" stroke-width="1" fill="none" fill-rule="evenodd">
        <g id="logo1" transform="translate(0.000000, -1.000000)" fill-rule="nonzero">
            <path d="M65.6,15.5 C64.6,15.5 63.6,15.8 62.8,16.3 C62.4,16.5 62,16.8 61.7,17.2 L61.7,17.1 L61.3,17.6 C61.2,17.7 61.1,17.8 61.1,17.9 C60.7,17.2 60.1,16.7 59.4,16.3 C58.8,15.9 58,15.6 57.3,15.6 L56.8,15.5 L56.8,15.5 C56.7,15.5 56.6,15.5 56.5,15.5 C55,15.5 53.6,16.1 52.6,17.1 C51.6,18.1 51,19.5 51,21 L51,28 C51,28.2 51.1,28.5 51.3,28.7 C51.5,28.9 51.7,29 52,29 C52.3,29 52.5,28.9 52.7,28.7 C52.9,28.5 53,28.3 53,28.1 L53,21.1 C53,20.1 53.4,19.2 54.1,18.5 C54.7,17.8 55.7,17.4 56.6,17.4 C56.8,17.4 57.1,17.4 57.3,17.5 C58,17.6 58.6,18 59.1,18.5 C59.8,19.2 60.2,20.1 60.2,21.1 L60.2,28.2 L60.2,28.3 C60.3,28.5 60.4,28.7 60.6,28.8 C60.6,28.8 60.6,28.8 60.7,28.8 C60.7,28.8 60.8,28.8 60.8,28.8 L61,28.9 L61.4,28.9 L61.6,28.8 C61.6,28.8 61.7,28.8 61.7,28.8 C61.7,28.8 61.7,28.8 61.8,28.8 C62,28.7 62.1,28.5 62.2,28.3 L62.2,28.2 L62.2,21.1 C62.2,20.1 62.6,19.2 63.3,18.5 C64.6,17.1 66.9,17.1 68.2,18.4 C68.2,18.4 68.3,18.5 68.3,18.5 C69,19.2 69.4,20.1 69.4,21.1 L69.4,28.1 C69.4,28.3 69.5,28.6 69.7,28.7 C69.9,28.9 70.1,29 70.4,29 C70.7,29 70.9,28.9 71.1,28.7 C71.3,28.5 71.4,28.3 71.4,28 L71.4,21 C71.4,19.5 70.8,18.1 69.8,17.1 C68.5,16.1 67.1,15.5 65.6,15.5 Z M81.4,15.5 C79.7,15.5 78.1,16.2 76.9,17.5 C74.4,20.2 74.4,24.3 76.9,27 C79.1,29.5 82.9,29.7 85.4,27.5 C85.6,27.4 85.7,27.2 85.9,27 C88.4,24.3 88.4,20.2 85.9,17.5 C84.8,16.2 83.1,15.5 81.4,15.5 L81.4,15.5 Z M81.4,27.1 C80.2,27.1 79.1,26.6 78.3,25.7 C76.5,23.8 76.5,20.8 78.3,18.8 C79.8,17.1 82.4,16.9 84.1,18.4 C84.2,18.5 84.4,18.7 84.5,18.8 C86.3,20.7 86.3,23.7 84.5,25.7 C83.8,26.6 82.6,27.1 81.4,27.1 Z M98.3,15.5 C97.3,15.5 96.3,15.7 95.4,16.2 C94.8,16.5 94.2,16.9 93.8,17.4 L93.8,11 C93.8,10.7 93.7,10.5 93.5,10.3 C93.3,10.1 93.1,10 92.8,10 C92.5,10 92.3,10.1 92.1,10.3 C92,10.5 91.9,10.7 91.9,11 L91.9,22.2 C91.9,24 92.5,25.7 93.8,27 C94,27.2 94.2,27.4 94.4,27.6 L94.4,27.6 C94.6,27.8 94.8,27.9 95,28 L95,28 C95.2,28.1 95.3,28.2 95.5,28.3 C98,29.6 101,29.1 103,27 C105.5,24.3 105.5,20.2 103,17.5 C101.7,16.2 100.1,15.5 98.3,15.5 Z M98.3,27 C97.4,27 96.5,26.7 95.8,26.2 L95.8,26.2 C95.6,26 95.3,25.8 95.1,25.6 C94.2,24.7 93.7,23.4 93.8,22.1 L93.8,22 C93.8,20.8 94.3,19.6 95.2,18.7 C96,17.8 97.2,17.3 98.4,17.4 C99.6,17.4 100.8,17.9 101.6,18.8 C103.4,20.7 103.4,23.7 101.6,25.6 C100.7,26.6 99.6,27.1 98.3,27 L98.3,27 Z M109.9,15.5 C109.4,15.5 108.9,15.9 108.9,16.4 C108.9,16.4 108.9,16.4 108.9,16.4 L108.9,28 C108.9,28.3 109,28.5 109.2,28.7 C109.4,28.9 109.6,29 109.9,29 C110.2,29 110.4,28.9 110.6,28.7 C110.8,28.5 110.9,28.3 110.9,28 L110.9,16.5 C110.9,15.9 110.5,15.5 109.9,15.5 C110,15.5 110,15.5 109.9,15.5 L109.9,15.5 Z M122,15.5 C120.3,15.5 118.7,16.2 117.5,17.5 C115,20.2 115,24.3 117.5,27 C119.7,29.5 123.5,29.7 126,27.5 C126.2,27.4 126.3,27.2 126.5,27 C129,24.3 129,20.2 126.5,17.5 C125.3,16.2 123.7,15.5 122,15.5 L122,15.5 Z M122,27.1 C120.8,27.1 119.7,26.6 118.9,25.7 C117.1,23.8 117.1,20.8 118.9,18.8 C120.4,17.1 123,16.9 124.7,18.4 C124.8,18.5 125,18.7 125.1,18.8 C126.9,20.7 126.9,23.7 125.1,25.7 C124.3,26.6 123.2,27.1 122,27.1 L122,27.1 Z M136.6,15.5 L135.3,15.5 L135.3,11.1 C135.3,10.8 135.2,10.6 135,10.4 C134.8,10.2 134.6,10.1 134.3,10.1 C133.8,10.1 133.4,10.5 133.3,11.1 L133.3,15.5 L132,15.5 C131.6,15.4 131.2,15.7 131.1,16.1 C131.1,16.2 131.1,16.4 131.1,16.5 C131.1,16.7 131.1,16.9 131.3,17.1 C131.5,17.3 131.8,17.4 132.1,17.4 L133.4,17.4 L133.4,26.4 C133.4,27.8 134.4,28.9 135.8,29 C135.8,29 135.9,29 135.9,29 C136.1,29 136.4,28.9 136.6,28.7 C136.8,28.5 136.9,28.3 136.9,28 C136.9,27.7 136.8,27.5 136.6,27.3 C136.4,27.1 136.2,27 135.9,27 C135.8,27 135.6,26.9 135.5,26.8 C135.4,26.7 135.3,26.5 135.3,26.4 L135.3,17.4 L136.6,17.4 C136.8,17.4 137.1,17.3 137.3,17.1 C137.7,16.8 137.7,16.2 137.3,15.8 C137.3,15.8 137.3,15.8 137.3,15.8 C137,15.6 136.8,15.5 136.6,15.5 Z M143.8,15.5 C143.3,15.5 142.8,15.9 142.8,16.4 C142.8,16.4 142.8,16.4 142.8,16.4 L142.8,28 C142.8,28.3 142.9,28.5 143.1,28.7 C143.3,28.9 143.5,29 143.8,29 C144.1,29 144.3,28.9 144.5,28.7 C144.7,28.5 144.8,28.3 144.8,28 L144.8,16.5 C144.7,15.9 144.3,15.5 143.8,15.5 C143.8,15.5 143.8,15.5 143.8,15.5 Z M159.1,26 L159.1,26 C158.2,26.7 157,27.1 155.8,27.1 C153.1,27.1 151,24.9 151,22.2 C151,20.9 151.5,19.7 152.4,18.8 C153.3,17.9 154.5,17.4 155.7,17.4 C156.9,17.4 158,17.8 159,18.5 C159.4,18.8 159.9,18.8 160.2,18.4 C160.2,18.4 160.2,18.4 160.2,18.3 C160.4,18.1 160.5,17.8 160.4,17.6 C160.4,17.3 160.2,17.1 160,17 C158.7,16 157.2,15.5 155.6,15.5 C151.9,15.6 148.9,18.6 149,22.3 C149,24.1 149.7,25.8 151,27 C152.3,28.3 154,29 155.9,29 C157.4,29 158.9,28.5 160.1,27.6 C160.3,27.4 160.5,27.2 160.5,26.9 C160.5,26.6 160.4,26.4 160.3,26.2 C160.1,25.8 159.6,25.7 159.1,26 C159.1,26 159.1,26 159.1,26 L159.1,26 Z M172.4,22.2 L172.4,22.2 C171.4,21.6 170.3,21.3 169.2,21.1 L169.1,21.1 C168.2,21 167.4,20.7 166.7,20.3 C166.3,20.1 166.1,19.7 166.1,19.2 C166.2,18.7 166.4,18.3 166.8,18 C167.4,17.6 168.2,17.3 169,17.4 C169.4,17.4 169.7,17.5 170.1,17.6 C170.4,17.7 170.7,17.8 171,18 C171.2,18.1 171.5,18.3 172,18.6 C172.2,18.7 172.5,18.8 172.7,18.7 C172.9,18.7 173.2,18.5 173.3,18.3 C173.4,18.1 173.5,17.8 173.4,17.6 C173.4,17.4 173.2,17.1 173,17 L173,17 C172.5,16.7 172.2,16.5 171.9,16.3 C171.5,16.1 171.1,15.9 170.7,15.8 C170.2,15.6 169.6,15.5 169.1,15.5 C167.9,15.5 166.8,15.8 165.8,16.4 C164.9,17 164.3,18.1 164.3,19.2 C164.3,20.3 164.9,21.3 165.8,21.8 C166.7,22.3 167.7,22.7 168.7,22.8 L168.8,22.8 L168.8,22.8 C169.7,22.9 170.6,23.2 171.4,23.7 C171.8,24 172.1,24.5 172.1,25 C172.1,25.5 171.8,26 171.3,26.3 L171.3,26.3 C170.6,26.8 169.8,27.1 168.9,27 C167.6,26.9 166.4,26.4 165.4,25.6 C165.2,25.4 165,25.3 164.7,25.4 C164.4,25.4 164.2,25.6 164.1,25.8 C163.8,26.2 163.8,26.7 164.1,27 C164.1,27 164.2,27 164.2,27.1 C165.6,28.3 167.3,29 169.1,29 C170.3,29 171.5,28.6 172.5,27.9 C173.5,27.2 174,26.2 174,25 C174,23.8 173.4,22.7 172.4,22.2 L172.4,22.2 Z M110,12 C109.5,12 109,12.4 109,13 C109,13.5 109.4,14 110,14 C110.6,14 111,13.6 111,13 C111,13 111,13 111,13 C110.9,12.4 110.5,12 110,12 Z M143.8,13.9 C144.3,13.9 144.8,13.5 144.8,12.9 C144.8,12.4 144.4,11.9 143.8,11.9 C143.2,11.9 142.8,12.3 142.8,12.9 C142.8,12.9 142.8,12.9 142.8,12.9 C142.8,13.5 143.2,13.9 143.8,13.9 Z" id="mobiotics_ash" fill="#0E0D0D"></path>
            <g id="Group">
                <path d="M0,2.5 C0,2.3 0,2.2 0.1,2.1 C5.3,-0.6 12.1,1.4 12.1,10.5 C12.1,19.8 12.1,28.2 12.1,32.6 C12.1,36.8 14.8,38.4 15,38.5 C12.2,41.1 1,44.9 1,30.6 C1,22.5 1,14.8 1,10.7 C1,6.7 1,5 0,2.5 Z" id="Path" fill="#DA1A5D"></path>
                <path d="M19.7,5.7 C23,5.7 26,8.1 26,13.6 C26,21.3 26,26.5 26,30.1 C26,33.6 28.2,34.9 28.4,35 C25.9,37.3 16.8,39 16.8,28.5 C16.8,21.8 16.8,17.2 16.8,13.8 C16.8,10.4 16.8,9.1 16,6.9 C16.9,6.1 18.4,5.7 19.7,5.7 Z" id="Path" fill="#457ABD"></path>
                <path d="M32.9,11.1 C35.8,11 38.5,13.1 38.4,18 C38.2,24.5 38.2,24.5 38,27.5 C37.9,30.4 39.7,31.5 39.8,31.6 C38.3,34.4 30,34.6 30.3,25.8 C30.5,20.1 30.5,20.6 30.6,17.8 C30.7,15 30.8,13.8 30.1,11.9 C30.7,11.4 32.1,11.2 32.9,11.1 Z" id="Path" fill="#AACF37"></path>
            </g>
        </g>
    </g>
</svg>