<?xml version="1.0" encoding="UTF-8"?>
<svg width="206px" height="423px" viewBox="0 0 206 423" version="1.1" xmlns="http://www.w3.org/2000/svg" xmlns:xlink="http://www.w3.org/1999/xlink">
    <!-- Generator: Sketch 56.2 (81672) - https://sketch.com -->
    <title>Rectangle 6</title>
    <desc>Created with Sketch.</desc>
    <defs>
        <rect id="path-1" x="63" y="67" width="300" height="300" rx="40"></rect>
        <filter x="-9.3%" y="-6.7%" width="118.7%" height="118.7%" filterUnits="objectBoundingBox" id="filter-2">
            <feOffset dx="0" dy="8" in="SourceAlpha" result="shadowOffsetOuter1"></feOffset>
            <feGaussianBlur stdDeviation="8" in="shadowOffsetOuter1" result="shadowBlurOuter1"></feGaussianBlur>
            <feColorMatrix values="0 0 0 0 0   0 0 0 0 0   0 0 0 0 0  0 0 0 0.1 0" type="matrix" in="shadowBlurOuter1"></feColorMatrix>
        </filter>
    </defs>
    <g id="Page-1" stroke="none" stroke-width="1" fill="none" fill-rule="evenodd" opacity="0.9">
        <g id="Home" transform="translate(0.000000, -1261.000000)">
            <g id="About-US" transform="translate(-213.000000, 1080.000000)">
                <g id="Blocks-" transform="translate(0.000000, 170.000000)">
                    <g id="Rectangle-6" transform="translate(213.000000, 217.000000) rotate(45.000000) translate(-213.000000, -217.000000) ">
                        <use fill="black" fill-opacity="1" filter="url(#filter-2)" xlink:href="#path-1"></use>
                        <use fill="#AACF37" fill-rule="evenodd" xlink:href="#path-1"></use>
                    </g>
                </g>
            </g>
        </g>
    </g>
</svg>